/home/igor/Área de Trabalho/Workspace/Java-Projects/sockets/client/src/main/java/module-info.java
/home/igor/Área de Trabalho/Workspace/Java-Projects/sockets/client/src/main/java/com/redes/projeto/App.java
/home/igor/Área de Trabalho/Workspace/Java-Projects/sockets/client/src/main/java/com/redes/projeto/entities/Request.java
/home/igor/Área de Trabalho/Workspace/Java-Projects/sockets/client/src/main/java/com/redes/projeto/entities/User.java
/home/igor/Área de Trabalho/Workspace/Java-Projects/sockets/client/src/main/java/com/redes/projeto/MessageViewController.java
/home/igor/Área de Trabalho/Workspace/Java-Projects/sockets/client/src/main/java/com/redes/projeto/CreateAccountController.java
/home/igor/Área de Trabalho/Workspace/Java-Projects/sockets/client/src/main/java/com/redes/projeto/dao/CreateServerConnectionDao.java
/home/igor/Área de Trabalho/Workspace/Java-Projects/sockets/client/src/main/java/com/redes/projeto/LoginViewController.java
/home/igor/Área de Trabalho/Workspace/Java-Projects/sockets/client/src/main/java/com/redes/projeto/entities/UserMessage.java
/home/igor/Área de Trabalho/Workspace/Java-Projects/sockets/client/src/main/java/com/redes/projeto/MainViewController.java
/home/igor/Área de Trabalho/Workspace/Java-Projects/sockets/client/src/main/java/com/redes/projeto/SendMessageController.java
/home/igor/Área de Trabalho/Workspace/Java-Projects/sockets/client/src/main/java/com/redes/projeto/Main.java
/home/igor/Área de Trabalho/Workspace/Java-Projects/sockets/client/src/main/java/com/redes/projeto/utils/Utils.java
/home/igor/Área de Trabalho/Workspace/Java-Projects/sockets/client/src/main/java/com/redes/projeto/entities/Message.java
